{
  "code": 200,
  "msg": "success",
  "data": {
    "content": [
      {
        "eventId": 101,
        "name": "废气扰民"
      },
      {
        "eventId": 102,
        "name": "餐厅废气扰民"
      },
      {
        "eventId": 103,
        "name": "工业、施工噪音扰民"
      },
      {
        "eventId": 104,
        "name": "噪音扰民"
      },
      {
        "eventId": 105,
        "name": "工业废水直排"
      },
      {
        "eventId": 106,
        "name": "无证电镀厂"
      },
      {
        "eventId": 107,
        "name": "无证线路板厂"
      },
      {
        "eventId": 108,
        "name": "非法收、储、排危险废物"
      },
      {
        "eventId": 109,
        "name": "道路水浸"
      },
      {
        "eventId": 110,
        "name": "内涝"
      }
    ],
    "totalPages": 4,
    "totalElements": 32,
    "last": false,
    "numberOfElements": 10,
    "sort": null,
    "first": true,
    "size": 10,
    "number": 0
  }
}